<?xml version="1.0" encoding="UTF-8" standalone="no"?>
<!DOCTYPE svg PUBLIC "-//W3C//DTD SVG 1.1//EN" "http://www.w3.org/Graphics/SVG/1.1/DTD/svg11.dtd">
<svg width="100%" height="100%" viewBox="0 0 1500 1500" version="1.1" xmlns="http://www.w3.org/2000/svg" xmlns:xlink="http://www.w3.org/1999/xlink" xml:space="preserve" xmlns:serif="http://www.serif.com/" style="fill-rule:evenodd;clip-rule:evenodd;stroke-linejoin:round;stroke-miterlimit:1.41421;">
    <g transform="matrix(1,0,0,1,1.56576,-106.317)">
        <path d="M969.215,288.1C1175.75,288.101 1343.42,455.778 1343.42,662.309L1343.42,731.219C1343.42,926.599 1193.37,1087.21 1002.31,1103.98L1006.41,1424.53L762.129,1105.43L527.654,1105.43C321.122,1105.43 153.445,937.75 153.445,731.219L153.445,662.309C153.445,455.778 321.122,288.101 527.654,288.1L969.215,288.1Z" style="fill:rgb(71,0,255);"/>
    </g>
    <g transform="matrix(11.2775,0,0,11.2775,-4214.29,-5818.29)">
        <text x="408.101px" y="588.721px" style="font-family:'HoboStd', 'Hobo Std';font-weight:500;font-size:50px;fill:white;">IZI</text>
    </g>
</svg>
